Data Wrangling
…
### `distinct` to filter for unique rows

And `arrange` to order alphabetically

```r
ncbikecrash %>% 
  select(county, city) %>% 
  distinct() %>% 
  arrange(county, city)
```

```
## # A tibble: 391 x 2
##    county    city              
##    <chr>     <chr>             
##  1 Alamance  Alamance          
##  2 Alamance  Burlington        
##  3 Alamance  Elon              
##  4 Alamance  Elon College      
##  5 Alamance  Gibsonville       
##  6 Alamance  Graham            
##  7 Alamance  Green Level       
##  8 Alamance  Mebane            
##  9 Alamance  None - Rural Crash
## 10 Alexander None - Rural Crash
## # … with 381 more rows
```
…
