Scientific studies, confounding, and Simpson’s paradox
…
---

## Data

```r
ucb_admit <- read_csv("data/ucb_admit.csv")
ucb_admit
```

```
## # A tibble: 4,526 x 3
##    Admit    Gender Dept 
##    <chr>    <chr>  <chr>
##  1 Admitted Male   A    
##  2 Admitted Male   A    
##  3 Admitted Male   A    
##  4 Admitted Male   A    
##  5 Admitted Male   A    
##  6 Admitted Male   A    
##  7 Admitted Male   A    
##  8 Admitted Male   A    
##  9 Admitted Male   A    
## 10 Admitted Male   A    
## # … with 4,516 more rows
```
…
---

### Gender distribution, by department

.question[
What can you say about the by department gender distribution?
]

```r
ucb_admit %>%
  count(Dept, Gender, Admit)     # --->
```

```
## # A tibble: 24 x 4
##    Dept  Gender Admit        n
##    <chr> <chr>  <chr>    <int>
##  1 A     Female Admitted    89
##  2 A     Female Rejected    19
##  3 A     Male   Admitted   512
##  4 A     Male   Rejected   313
##  5 B     Female Admitted    17
##  6 B     Female Rejected     8
##  7 B     Male   Admitted   353
##  8 B     Male   Rejected   207
##  9 C     Female Admitted   202
## 10 C     Female Rejected   391
## # … with 14 more rows
```

---

.small[

```r
ucb_admit %>%
  count(Dept, Gender, Admit) %>%
  print(n = 15)
```

```
## # A tibble: 24 x 4
##    Dept  Gender Admit        n
##    <chr> <chr>  <chr>    <int>
##  1 A     Female Admitted    89
##  2 A     Female Rejected    19
##  3 A     Male   Admitted   512
##  4 A     Male   Rejected   313
##  5 B     Female Admitted    17
##  6 B     Female Rejected     8
##  7 B     Male   Admitted   353
##  8 B     Male   Rejected   207
##  9 C     Female Admitted   202
## 10 C     Female Rejected   391
## 11 C     Male   Admitted   120
## 12 C     Male   Rejected   205
## 13 D     Female Admitted   131
## 14 D     Female Rejected   244
## 15 D     Male   Admitted   138
## # … with 9 more rows
```
…
