Central Limit Theorem
…
---

## Sampling distribution

```r
sampling <- norm_pop %>%
  rep_sample_n(size = 50, replace = TRUE, reps = 1000) %>%
  group_by(replicate) %>%
  summarise(xbar = mean(x))
sampling
```

```
## # A tibble: 1,000 x 2
##    replicate  xbar
##        <int> <dbl>
##  1         1  20.1
##  2         2  19.6
##  3         3  19.9
##  4         4  20.2
##  5         5  20.6
##  6         6  19.9
##  7         7  20.0
##  8         8  19.7
##  9         9  19.2
## 10        10  19.3
## # … with 990 more rows
```
…
