Bechdel
…
In order to evaluate how return on investment varies among movies that pass and fail the Bechdel test, well first create a new variable called roi as the ratio of the total international gross revenue to the budget.

bechdel90_13 <- bechdel90_13 %>%
  mutate(roi = intgross_2013 / budget_2013)

Lets see which movies have the highest return on investment.

bechdel90_13 %>%
  arrange(desc(roi)) %>% 
  select(title, clean_test, binary, roi, budget_2013, intgross_2013)

## # A tibble: 1,615 x 6
##    title                  clean_test binary   roi budget_2013 intgross_2013
##    <chr>                  <ord>      <chr>  <dbl>       <int>         <dbl>
##  1 Paranormal Activity    dubious    FAIL   432.       505595     218173082
##  2 The Blair Witch Proje ok         PASS   414.       839077     347238122
##  3 El Mariachi            nowomen    FAIL   292.        11622       3390310
##  4 Clerks.                notalk     FAIL   144.        42435       6120440
##  5 Once                   men        FAIL   127.       173369      21956864
##  6 In the Company of Men  notalk     FAIL   115.        36281       4184879
##  7 Napoleon Dynamite      notalk     FAIL   115.       493277      56878201
##  8 The Devil Inside       ok         PASS   102.      1014639     103248087
##  9 Saw                    men        FAIL    85.9     1479831     127137678
## 10 Primer                 notalk     FAIL    80.8        8632        697797
## #  with 1,605 more rows
…
